…
``` r
got_alias <- got_chars %>% 
  {tibble(
  name = map(., `[[`, 'name'),
  aliases = map(., `[[`, 'aliases')
  )}

got_alias
```

    ## # A tibble: 30 x 2
    ##    name      aliases   
    ##    <list>    <list>    
    ##  1 <chr [1]> <chr [4]> 
    ##  2 <chr [1]> <chr [11]>
    ##  3 <chr [1]> <chr [1]> 
    ##  4 <chr [1]> <chr [1]> 
    ##  5 <chr [1]> <chr [1]> 
    ##  6 <chr [1]> <chr [1]> 
    ##  7 <chr [1]> <chr [1]> 
    ##  8 <chr [1]> <chr [1]> 
    ##  9 <chr [1]> <chr [11]>
    ## 10 <chr [1]> <chr [5]> 
    ## # ... with 20 more rows
…
``` r
got_alias %>% 
  drop_na() %>% 
  unnest(aliases) 
```

    ## # A tibble: 114 x 1
    ##    aliases           
    ##    <chr>             
    ##  1 Prince of Fools   
    ##  2 Theon Turncloak   
    ##  3 Reek              
    ##  4 Theon Kinslayer   
    ##  5 The Imp           
    ##  6 Halfman           
    ##  7 The boyman        
    ##  8 Giant of Lannister
    ##  9 Lord Tywin's Doom 
    ## 10 Lord Tywin's Bane 
    ## # ... with 104 more rows
…
